^C:\USERS\UTILIZADOR\DOCUMENTS\ESINF\TRABALHO\TRABALHO\TRABALHO\MAIN.CPP
C:\USERS\UTILIZADOR\DOCUMENTS\ESINF\TRABALHO\TRABALHO\TRABALHO\DEBUG\MAIN.OBJ
C:\USERS\UTILIZADOR\DOCUMENTS\ESINF\TRABALHO\TRABALHO\TRABALHO\DEBUG\VC110.PDB
